{
    "index": {
        "download_fdroid": "Baixar F-Droid",
        "introduction": "F-Droid é um catálogo instalável de softwares de código livre e aberto (FOSS) para a plataforma Android. O aplicativo facilita a busca e a instalação, além ficar de olho nas atualizações no seu dispositivo.",
        "gpg_signature": "Assinatura PGP",
        "screenshot": "Captura de tela do aplicativo F-Droid para Android",
        "title": "O que é F-Droid?"
    },
    "navigation": {
        "about": "Sobre",
        "documentation": "Documentos",
        "forum": "Fórum",
        "browse": "Navegar",
        "contribute": "Contribua",
        "repomaker": "Criador de Repositórios",
        "tutorials": "Tutoriais",
        "news": "Notícias",
        "issues": "Problemas"
    },
    "package": {
        "website": "Website",
        "license": "Licença",
        "new_in_version": "Novo na versão [latest_version]",
        "liberapay": "Liberapay",
        "flattr": "Flattr",
        "build_metadata": "Construir Metadados",
        "changelog": "Histórico de modificações",
        "author": "Autor(a)",
        "version_info": "<b>Versão [package_version]</b> ([package_version_code]) - Adicionada em [package_added_date]",
        "signed_by_developer": "Construído e assinado pelo desenvolvedor original.",
        "gpg_signature": "Assinatura PGP",
        "signed_by_fdroid": "Construído e assinado por F-Droid, e garantida sua correspondência com <a href=\"[source_code_url]\">este pacote de fontes</a>.",
        "source_code": "Código Fonte",
        "technical_info": "Informação técnica",
        "packages": "Pacotes",
        "download": "Baixar [file_extension]",
        "minimum_android_version": "Esta versão requer o Android [android_version] ou mais atual.",
        "donate": "Doar",
        "suggest_downloading_via_fdroid": "Embora os downloads de APK estejam disponíveis abaixo, você deve estar ciente que ao instalá-los dessa forma você não receberá notificações de atualização, além de ser um modo menos seguro de baixá-los. Recomendamos que você instale o cliente F-Droid e o utilize.",
        "issue_tracker": "Rastreador de Problemas",
        "permissions": "Permissões"
    },
    "sidebars": {
        "latest_packages": {
            "heading": "Aplicativos mais recentes"
        },
        "news": {
            "heading": "Novidades"
        },
        "search": {
            "noscript": "O JavaScript precisa ser habilitado",
            "search": "Pesquisa",
            "heading": "Procurar aplicativos"
        },
        "donate": {
            "bank_transfer_name": "Nome",
            "bitcoin_alt": "Doar via Bitcoin",
            "powered_by_donations": "F-Droid é sustentada por suas doações!",
            "via_bank_transfer": "Transferência bancária",
            "litecoin_alt": "Doar via Litecoin",
            "flattr_alt": "Doar via Flattr",
            "paypal_alt": "Doar via PayPal",
            "liberapay_alt": "Doar via Liberapay",
            "heading": "Fazer doação",
            "hellotux": "👕 Camisetas 👕 de",
            "hellotux_alt": "Hellotux",
            "hellotux_donation": "F-Droid receberá 3€ por cada camisa vendida."
        },
        "last_updated": {
            "heading": "Última atualização"
        }
    }
}
